{
  "name": "pi",
  "word": "ReferenceError",
  "rules": {
    "source_file": {
      "type": "REPEAT1",
      "content": {
        "type": "CHOICE",
        "members": [
          {
            "type": "SYMBOL",
            "name": "_top_declarations"
          },
          {
            "type": "SYMBOL",
            "name": "comment"
          }
        ]
      }
    },
    "_top_declarations": {
      "type": "CHOICE",
      "members": [
        {
          "type": "SYMBOL",
          "name": "_type_declaration"
        },
        {
          "type": "SYMBOL",
          "name": "_proc_declaration"
        }
      ]
    },
    "_type_declaration": {
      "type": "CHOICE",
      "members": [
        {
          "type": "SYMBOL",
          "name": "type_declaration"
        },
        {
          "type": "SYMBOL",
          "name": "dual_type_declaration"
        }
      ]
    },
    "type_declaration": {
      "type": "SEQ",
      "members": [
        {
          "type": "SYMBOL",
          "name": "name"
        },
        {
          "type": "STRING",
          "value": "::"
        },
        {
          "type": "SYMBOL",
          "name": "name"
        }
      ]
    },
    "dual_type_declaration": {
      "type": "SEQ",
      "members": [
        {
          "type": "SYMBOL",
          "name": "name"
        },
        {
          "type": "SYMBOL",
          "name": "name"
        },
        {
          "type": "STRING",
          "value": "::"
        },
        {
          "type": "SYMBOL",
          "name": "name"
        }
      ]
    },
    "_proc_declaration": {
      "type": "SEQ",
      "members": [
        {
          "type": "SYMBOL",
          "name": "proc_declaration"
        }
      ]
    },
    "proc_declaration": {
      "type": "PREC",
      "value": 3,
      "content": {
        "type": "SEQ",
        "members": [
          {
            "type": "SYMBOL",
            "name": "name"
          },
          {
            "type": "STRING",
            "value": "="
          },
          {
            "type": "SYMBOL",
            "name": "_term"
          }
        ]
      }
    },
    "_term": {
      "type": "CHOICE",
      "members": [
        {
          "type": "SYMBOL",
          "name": "_para_term"
        }
      ]
    },
    "_para_term": {
      "type": "PREC_RIGHT",
      "value": 0,
      "content": {
        "type": "SEQ",
        "members": [
          {
            "type": "SYMBOL",
            "name": "term"
          },
          {
            "type": "REPEAT",
            "content": {
              "type": "PREC",
              "value": 10,
              "content": {
                "type": "SEQ",
                "members": [
                  {
                    "type": "STRING",
                    "value": "|"
                  },
                  {
                    "type": "SYMBOL",
                    "name": "term"
                  }
                ]
              }
            }
          }
        ]
      }
    },
    "term": {
      "type": "PREC_RIGHT",
      "value": 0,
      "content": {
        "type": "SEQ",
        "members": [
          {
            "type": "SYMBOL",
            "name": "_atomic"
          },
          {
            "type": "REPEAT",
            "content": {
              "type": "PREC",
              "value": 15,
              "content": {
                "type": "SEQ",
                "members": [
                  {
                    "type": "STRING",
                    "value": "."
                  },
                  {
                    "type": "SYMBOL",
                    "name": "_atomic"
                  }
                ]
              }
            }
          }
        ]
      }
    },
    "_atomic": {
      "type": "CHOICE",
      "members": [
        {
          "type": "SYMBOL",
          "name": "_parenthesized_term"
        },
        {
          "type": "SYMBOL",
          "name": "send"
        },
        {
          "type": "SYMBOL",
          "name": "recv"
        },
        {
          "type": "SYMBOL",
          "name": "nu"
        },
        {
          "type": "SYMBOL",
          "name": "name"
        },
        {
          "type": "SYMBOL",
          "name": "end"
        }
      ]
    },
    "_parenthesized_term": {
      "type": "SEQ",
      "members": [
        {
          "type": "STRING",
          "value": "("
        },
        {
          "type": "ALIAS",
          "content": {
            "type": "SYMBOL",
            "name": "_term"
          },
          "named": true,
          "value": "term"
        },
        {
          "type": "STRING",
          "value": ")"
        }
      ]
    },
    "nu": {
      "type": "PREC_LEFT",
      "value": 0,
      "content": {
        "type": "SEQ",
        "members": [
          {
            "type": "STRING",
            "value": "nu"
          },
          {
            "type": "REPEAT1",
            "content": {
              "type": "ALIAS",
              "content": {
                "type": "SYMBOL",
                "name": "name"
              },
              "named": true,
              "value": "nu_name"
            }
          },
          {
            "type": "STRING",
            "value": ":"
          },
          {
            "type": "ALIAS",
            "content": {
              "type": "SYMBOL",
              "name": "_term"
            },
            "named": true,
            "value": "nu_body"
          }
        ]
      }
    },
    "end": {
      "type": "TOKEN",
      "content": {
        "type": "STRING",
        "value": "end"
      }
    },
    "send": {
      "type": "PREC_LEFT",
      "value": 20,
      "content": {
        "type": "SEQ",
        "members": [
          {
            "type": "SYMBOL",
            "name": "_channel"
          },
          {
            "type": "STRING",
            "value": "!"
          },
          {
            "type": "SYMBOL",
            "name": "_term_sendex"
          }
        ]
      }
    },
    "_channel": {
      "type": "CHOICE",
      "members": [
        {
          "type": "SYMBOL",
          "name": "name"
        },
        {
          "type": "SYMBOL",
          "name": "cmd"
        }
      ]
    },
    "_term_sendex": {
      "type": "CHOICE",
      "members": [
        {
          "type": "SYMBOL",
          "name": "label"
        },
        {
          "type": "SYMBOL",
          "name": "_pattern"
        },
        {
          "type": "SYMBOL",
          "name": "_expr"
        }
      ]
    },
    "_data_constructor": {
      "type": "CHOICE",
      "members": [
        {
          "type": "SYMBOL",
          "name": "string"
        },
        {
          "type": "SYMBOL",
          "name": "tuple"
        }
      ]
    },
    "recv": {
      "type": "PREC_LEFT",
      "value": 20,
      "content": {
        "type": "SEQ",
        "members": [
          {
            "type": "SYMBOL",
            "name": "_channel"
          },
          {
            "type": "STRING",
            "value": "?"
          },
          {
            "type": "SYMBOL",
            "name": "_term_recvex"
          }
        ]
      }
    },
    "_term_recvex": {
      "type": "CHOICE",
      "members": [
        {
          "type": "SYMBOL",
          "name": "label_guards"
        },
        {
          "type": "SYMBOL",
          "name": "_pattern"
        }
      ]
    },
    "label_guards": {
      "type": "SEQ",
      "members": [
        {
          "type": "STRING",
          "value": "{"
        },
        {
          "type": "SEQ",
          "members": [
            {
              "type": "SYMBOL",
              "name": "label_case"
            },
            {
              "type": "REPEAT",
              "content": {
                "type": "SEQ",
                "members": [
                  {
                    "type": "STRING",
                    "value": ";"
                  },
                  {
                    "type": "SYMBOL",
                    "name": "label_case"
                  }
                ]
              }
            }
          ]
        },
        {
          "type": "STRING",
          "value": "}"
        }
      ]
    },
    "label_case": {
      "type": "PREC_RIGHT",
      "value": 50,
      "content": {
        "type": "SEQ",
        "members": [
          {
            "type": "SYMBOL",
            "name": "label"
          },
          {
            "type": "STRING",
            "value": "->"
          },
          {
            "type": "CHOICE",
            "members": [
              {
                "type": "SYMBOL",
                "name": "name"
              },
              {
                "type": "SYMBOL",
                "name": "_term"
              }
            ]
          }
        ]
      }
    },
    "_pattern": {
      "type": "CHOICE",
      "members": [
        {
          "type": "SYMBOL",
          "name": "_data_constructor"
        },
        {
          "type": "SYMBOL",
          "name": "name"
        },
        {
          "type": "SYMBOL",
          "name": "digit"
        }
      ]
    },
    "_expr": {
      "type": "CHOICE",
      "members": [
        {
          "type": "SYMBOL",
          "name": "expr"
        },
        {
          "type": "SYMBOL",
          "name": "_parenthesized_expr"
        }
      ]
    },
    "expr": {
      "type": "PREC_RIGHT",
      "value": 60,
      "content": {
        "type": "CHOICE",
        "members": [
          {
            "type": "SYMBOL",
            "name": "expr_condition"
          },
          {
            "type": "SYMBOL",
            "name": "expr_biop"
          },
          {
            "type": "SYMBOL",
            "name": "expr_unop"
          },
          {
            "type": "SYMBOL",
            "name": "_pattern"
          }
        ]
      }
    },
    "expr_condition": {
      "type": "PREC_RIGHT",
      "value": 70,
      "content": {
        "type": "SEQ",
        "members": [
          {
            "type": "STRING",
            "value": "if"
          },
          {
            "type": "SYMBOL",
            "name": "expr"
          },
          {
            "type": "STRING",
            "value": "then"
          },
          {
            "type": "SYMBOL",
            "name": "expr"
          },
          {
            "type": "STRING",
            "value": "else"
          },
          {
            "type": "SYMBOL",
            "name": "expr"
          }
        ]
      }
    },
    "expr_biop": {
      "type": "PREC_LEFT",
      "value": 70,
      "content": {
        "type": "SEQ",
        "members": [
          {
            "type": "SYMBOL",
            "name": "expr"
          },
          {
            "type": "SYMBOL",
            "name": "biop"
          },
          {
            "type": "SYMBOL",
            "name": "expr"
          }
        ]
      }
    },
    "expr_unop": {
      "type": "PREC_LEFT",
      "value": 70,
      "content": {
        "type": "SEQ",
        "members": [
          {
            "type": "SYMBOL",
            "name": "unop"
          },
          {
            "type": "SYMBOL",
            "name": "expr"
          }
        ]
      }
    },
    "_parenthesized_expr": {
      "type": "SEQ",
      "members": [
        {
          "type": "STRING",
          "value": "("
        },
        {
          "type": "SYMBOL",
          "name": "expr"
        },
        {
          "type": "STRING",
          "value": ")"
        }
      ]
    },
    "string": {
      "type": "TOKEN",
      "content": {
        "type": "SEQ",
        "members": [
          {
            "type": "STRING",
            "value": "\""
          },
          {
            "type": "REPEAT",
            "content": {
              "type": "CHOICE",
              "members": [
                {
                  "type": "PATTERN",
                  "value": "[^\\\\\"\\n]"
                },
                {
                  "type": "PATTERN",
                  "value": "\\\\(\\^)?(.|\\n)"
                }
              ]
            }
          },
          {
            "type": "STRING",
            "value": "\""
          }
        ]
      }
    },
    "tuple": {
      "type": "SEQ",
      "members": [
        {
          "type": "STRING",
          "value": "<"
        },
        {
          "type": "SYMBOL",
          "name": "_pattern"
        },
        {
          "type": "STRING",
          "value": ","
        },
        {
          "type": "SEQ",
          "members": [
            {
              "type": "SYMBOL",
              "name": "_pattern"
            },
            {
              "type": "REPEAT",
              "content": {
                "type": "SEQ",
                "members": [
                  {
                    "type": "STRING",
                    "value": ","
                  },
                  {
                    "type": "SYMBOL",
                    "name": "_pattern"
                  }
                ]
              }
            }
          ]
        },
        {
          "type": "STRING",
          "value": ">"
        }
      ]
    },
    "biop": {
      "type": "CHOICE",
      "members": [
        {
          "type": "STRING",
          "value": "+"
        },
        {
          "type": "STRING",
          "value": "-"
        },
        {
          "type": "STRING",
          "value": "*"
        },
        {
          "type": "STRING",
          "value": "/"
        },
        {
          "type": "STRING",
          "value": ">="
        },
        {
          "type": "STRING",
          "value": ">"
        },
        {
          "type": "STRING",
          "value": "<="
        },
        {
          "type": "STRING",
          "value": "<"
        },
        {
          "type": "STRING",
          "value": "=="
        },
        {
          "type": "STRING",
          "value": "!="
        },
        {
          "type": "STRING",
          "value": "&&"
        },
        {
          "type": "STRING",
          "value": "||"
        }
      ]
    },
    "unop": {
      "type": "CHOICE",
      "members": [
        {
          "type": "STRING",
          "value": "-"
        },
        {
          "type": "STRING",
          "value": "~"
        }
      ]
    },
    "digit": {
      "type": "SYMBOL",
      "name": "_digit"
    },
    "_digit": {
      "type": "PATTERN",
      "value": "\\-?[0-9]+"
    },
    "label": {
      "type": "SYMBOL",
      "name": "_label"
    },
    "_label": {
      "type": "PATTERN",
      "value": "[A-Z][A-Z0-9]*"
    },
    "cmd": {
      "type": "SYMBOL",
      "name": "_cmd"
    },
    "_cmd": {
      "type": "PATTERN",
      "value": "[A-Z](\\w|')*"
    },
    "name": {
      "type": "SYMBOL",
      "name": "_name"
    },
    "_name": {
      "type": "PATTERN",
      "value": "[a-z](\\w|')*"
    },
    "comment": {
      "type": "TOKEN",
      "content": {
        "type": "CHOICE",
        "members": [
          {
            "type": "PREC",
            "value": 100,
            "content": {
              "type": "SEQ",
              "members": [
                {
                  "type": "STRING",
                  "value": "--"
                },
                {
                  "type": "PATTERN",
                  "value": ".*"
                }
              ]
            }
          },
          {
            "type": "SEQ",
            "members": [
              {
                "type": "STRING",
                "value": "//"
              },
              {
                "type": "PATTERN",
                "value": ".*"
              }
            ]
          }
        ]
      }
    }
  },
  "extras": [
    {
      "type": "SYMBOL",
      "name": "comment"
    },
    {
      "type": "PATTERN",
      "value": "\\s|\\\\n"
    }
  ],
  "conflicts": [],
  "externals": [],
  "inline": []
}